<svg width="9" height="13" viewBox="0 0 9 13" fill="none" xmlns="http://www.w3.org/2000/svg">
<path d="M0.610305 5.85643L6.63009 0.26681C7.01302 -0.0889415 7.63388 -0.0889415 8.01663 0.266809C8.3994 0.622244 8.3994 1.19872 8.01663 1.55413L2.69004 6.50009L8.01647 11.4459C8.39925 11.8015 8.39925 12.3779 8.01647 12.7333C7.6337 13.0889 7.01287 13.0889 6.62994 12.7333L0.61015 7.14361C0.418762 6.96581 0.323176 6.73302 0.323176 6.50012C0.323176 6.26711 0.418948 6.03415 0.610305 5.85643Z" fill="white"/>
</svg>
