<svg width="47" height="11" viewBox="0 0 47 11" fill="none" xmlns="http://www.w3.org/2000/svg">
<g clip-path="url(#clip0)">
<path d="M1.43389 7.05593C5.19278 3.92785 10.2046 2.58355 15.1051 2.00188C17.8059 1.67873 20.5485 1.53654 23.2772 1.54947C26.1729 1.54947 29.0826 1.79506 31.8809 2.53184C34.707 3.28155 37.38 4.53537 39.524 6.42256C40.2897 7.10764 41.473 6.02186 40.6934 5.33678C36.4194 1.54947 30.5026 0.205169 24.7529 0.0242054C21.7597 -0.0662764 18.7526 0.0629833 15.7734 0.386133C13.1282 0.657578 10.4831 1.10999 7.9493 1.89847C5.13709 2.79036 2.49195 4.10881 0.264463 5.97015C-0.52908 6.62938 0.640352 7.71516 1.43389 7.05593Z" fill="#099AE2"/>
<path d="M40.958 2.31379C41.7376 3.45127 42.6147 4.52413 43.5892 5.51943C43.8398 5.76502 44.0904 6.01061 44.341 6.25621C44.5637 6.46302 44.8561 6.82495 45.1345 6.95421C45.2876 7.01884 45.3155 7.0964 45.3573 7.00591C45.3294 7.05762 45.1206 7.13517 45.0788 7.16103C44.7725 7.29029 44.4106 7.32906 44.0904 7.40662C40.8466 8.1434 37.5889 8.8414 34.3173 9.50063C33.2731 9.70744 33.7186 11.1939 34.7628 10.9871C36.7257 10.5864 38.7026 10.1857 40.6517 9.75915C41.5844 9.55233 42.5172 9.34551 43.4639 9.1387C44.2853 8.95774 45.2041 8.8414 45.9698 8.47948C46.5267 8.20803 47 7.74269 47.014 7.13517C47.0279 6.35962 46.3179 5.90721 45.7888 5.41602C44.4941 4.25268 43.3664 2.96009 42.4058 1.55115C41.8211 0.710967 40.3872 1.4736 40.958 2.31379Z" fill="#099AE2"/>
</g>
<defs>
<clipPath id="clip0">
<rect width="47" height="11" fill="white"/>
</clipPath>
</defs>
</svg>
