<svg width="50" height="14" viewBox="0 0 50 14" fill="none" xmlns="http://www.w3.org/2000/svg">
<path d="M1.49492 5.30256C5.41375 8.71502 10.6389 10.1815 15.7479 10.8161C18.5636 11.1686 21.4229 11.3237 24.2677 11.3096C27.2867 11.3096 30.3201 11.0417 33.2375 10.2379C36.1839 9.42008 38.9706 8.05227 41.2058 5.99352C42.0041 5.24616 43.2378 6.43065 42.425 7.17801C37.9691 11.3096 31.8006 12.7761 25.8062 12.9735C22.6857 13.0723 19.5506 12.9312 16.4446 12.5787C13.6869 12.2826 10.9292 11.7891 8.28757 10.9289C5.3557 9.95591 2.598 8.5176 0.275723 6.48705C-0.551587 5.76789 0.667607 4.5834 1.49492 5.30256Z" fill="#099AE2"/>
<path d="M42.7008 10.4759C43.5136 9.23504 44.428 8.06465 45.444 6.97887C45.7052 6.71095 45.9665 6.44303 46.2278 6.17511C46.46 5.94949 46.7648 5.55466 47.0551 5.41365C47.2147 5.34315 47.2437 5.25854 47.2873 5.35725C47.2583 5.30084 47.0405 5.21624 46.997 5.18804C46.6777 5.04702 46.3003 5.00472 45.9665 4.92012C42.5847 4.11635 39.1884 3.3549 35.7775 2.63574C34.689 2.41012 35.1534 0.788501 36.242 1.01412C38.2885 1.45125 40.3495 1.88838 42.3815 2.35372C43.3539 2.57934 44.3264 2.80496 45.3134 3.03057C46.1697 3.22799 47.1276 3.3549 47.9259 3.74973C48.5065 4.04585 49 4.55349 49.0145 5.21624C49.029 6.0623 48.2888 6.55584 47.7372 7.09168C46.3874 8.36078 45.2118 9.77088 44.2103 11.3079C43.6007 12.2245 42.1057 11.3925 42.7008 10.4759Z" fill="#099AE2"/>
</svg>
