<svg width="7" height="7" viewBox="0 0 7 7" fill="none" xmlns="http://www.w3.org/2000/svg">
<path d="M3.36274 0.988463L0.0293309 5.82191C-0.00583663 5.87308 -0.00950339 5.93942 0.0189973 5.99408C0.0478313 6.04892 0.104499 6.08325 0.166501 6.08325L6.83333 6.08325C6.89533 6.08325 6.95216 6.04892 6.981 5.99408C6.99366 5.96975 7 5.94308 7 5.91658C7 5.88341 6.99 5.85041 6.9705 5.82191L3.63708 0.988463C3.60592 0.943295 3.55475 0.916462 3.49991 0.916462C3.44508 0.916462 3.39391 0.943462 3.36274 0.988463Z" fill="white"/>
</svg>
