<svg width="158" height="138" viewBox="0 0 158 138" fill="none" xmlns="http://www.w3.org/2000/svg">
<g clip-path="url(#clip0)">
<path d="M8.10949 57.7877C4.55586 39.5579 21.504 21.9661 38.8165 13.0335C56.1291 4.10082 75.9019 1.63979 95.5835 0.0902562C100.777 -0.36549 106.518 0.546003 111.529 1.82209C116.541 3.18933 120.823 5.28577 121.917 10.1167C122.919 14.2184 121.188 18.4113 119.639 22.4218C114.536 36.0942 112.349 51.7719 119.548 64.6239C122.281 69.4549 126.199 75.2884 122.737 79.6636C121.37 81.3954 119.092 82.2158 116.996 83.1272C105.607 87.9582 95.948 96.1616 89.5697 106.279C83.4647 116.032 79.7289 127.973 69.6147 134.08C57.587 141.28 31.527 138.09 21.6862 128.428C11.8454 118.767 3.46243 102.998 0.364395 89.8723C-2.18693 78.9344 9.38516 68.908 8.10949 57.7877Z" fill="#0E76BC"/>
<path opacity="0.5" d="M115.903 107.738C111.165 111.293 101.962 118.403 92.2122 116.398C82.4625 114.392 73.2595 108.376 65.0588 101.631C56.2203 94.4306 47.8373 85.6803 44.3748 75.4716C40.4567 63.9868 43.4636 52.4108 49.842 44.1162C56.2203 35.8216 65.6966 30.3527 75.3552 25.6129C82.4625 22.1492 89.8431 19.0502 97.8616 17.4095C106.427 15.6776 115.539 15.4953 124.559 15.4042C129.024 15.313 133.58 15.313 138.136 16.8626C147.248 19.9616 154.173 29.0766 156.724 38.0092C159.458 47.671 157.727 57.1506 153.991 65.1717C150.255 73.1928 152.806 86.4095 147.066 93.0634C139.594 101.54 126.291 102.452 115.903 107.738Z" fill="#6EDDFF"/>
<path d="M69.4326 126.333C61.7786 126.242 54.2157 125.604 46.6529 124.419C43.9193 123.963 41.0946 123.416 39.1811 121.411C37.1765 119.223 36.9032 115.942 36.7209 113.025C35.4453 87.4122 35.8097 61.7081 37.9055 36.1863C38.0877 33.8164 38.5433 31.0819 40.5479 29.8059C41.8236 29.0767 43.3726 29.0767 44.7394 29.0767C60.4118 29.4413 76.0842 29.8059 91.7567 30.1705C93.3968 30.1705 95.0369 30.2616 96.586 30.8085C100.869 32.4492 102.6 37.5535 103.055 42.2022C103.693 48.4915 103.055 54.7808 102.418 61.0701C100.777 78.2061 99.7751 92.79 99.8662 110.017C99.8662 114.484 99.4106 119.132 98.9551 121.684C98.8639 122.414 97.4972 123.963 96.9504 124.419C95.857 125.513 94.7636 125.786 93.8524 125.877C90.481 126.242 89.0231 126.424 83.4649 126.424C78.7267 126.515 75.4464 126.424 69.4326 126.333Z" fill="#25AAE1"/>
<path d="M42.8258 34.7279C39.91 36.642 39.6367 40.6526 39.5456 44.1163C39.3633 54.2339 39.1811 64.3514 38.9988 74.469C38.8166 85.3158 38.6344 96.0714 39.2722 106.918C39.4544 109.288 39.7278 111.931 41.6413 113.299C42.917 114.301 44.6482 114.484 46.2883 114.575C59.2272 115.668 72.1661 115.942 85.105 115.76C88.7497 115.668 93.0323 115.213 94.6724 112.022C95.4014 110.564 95.4014 108.832 95.4014 107.1C95.4014 87.5033 98.7728 68.0885 98.4083 48.5826C98.3172 46.1216 98.2261 43.5694 97.5882 41.1995C97.0415 39.4677 96.1303 37.7358 94.5813 36.7332C93.1234 35.8217 91.301 35.7306 89.5698 35.6394C76.6309 35.1837 63.7832 34.6368 50.8443 34.0899C48.1107 33.9987 45.1949 33.9076 42.6436 35.0014" fill="#6EDDFF"/>
<path d="M44.6482 39.3765C43.8282 39.4676 43.0992 40.0145 42.8258 40.7437C42.5525 41.3818 42.5525 42.0198 42.6436 42.6578C43.0992 55.2364 44.0104 67.815 45.4683 80.3025C45.5594 81.3051 45.7416 82.3989 46.2884 83.2193C47.4729 84.86 49.842 84.86 51.7555 84.7688C63.6009 84.3131 75.3553 86.4095 87.2007 85.498C88.5675 85.4069 90.1165 85.2246 91.1188 84.2219C92.1211 83.2193 92.3034 81.7609 92.3945 80.3936C93.579 68.3619 92.5767 56.2391 91.5744 44.1162C91.4833 43.2959 91.3922 42.4755 90.7543 41.9287C90.2987 41.5641 89.6609 41.4729 89.1142 41.4729C74.4441 40.1057 59.5917 39.2853 44.6482 39.103" fill="white"/>
<path d="M70.9816 117.856C70.6171 117.127 69.7059 117.036 68.8858 116.945C67.7013 116.853 66.4256 116.762 65.4233 117.491C64.6032 118.038 64.1477 119.041 64.0565 120.044C63.9654 121.046 64.3299 122.049 64.7855 122.869C65.0588 123.416 65.4233 123.872 65.8789 124.237C66.699 124.875 67.8835 124.875 68.8858 124.875C69.4325 124.875 70.0704 124.875 70.6171 124.601C71.8928 124.054 72.1661 122.414 72.2572 120.955C72.2572 120.044 72.1661 118.95 71.346 118.403" fill="#0F0F2D"/>
<path d="M70.3438 118.494C70.0704 117.947 69.3415 117.856 68.7037 117.765C67.7925 117.674 66.699 117.674 65.9701 118.13C65.3323 118.585 64.9678 119.314 64.8767 120.135C64.7855 120.955 65.0589 121.684 65.4234 122.414C65.6056 122.778 65.879 123.234 66.2435 123.507C66.8813 123.963 67.7925 123.963 68.6125 123.963C69.0681 123.963 69.5237 123.963 69.9793 123.781C70.9816 123.325 71.255 122.049 71.255 120.955C71.255 120.226 71.1639 119.406 70.526 118.95" fill="#07020D"/>
<path d="M67.6102 96.1625C66.0611 95.889 64.421 96.4359 63.2365 97.5297C61.5052 98.9881 60.6851 101.54 61.5963 103.546C62.5986 105.733 65.2411 106.645 67.6102 106.645C68.1569 106.645 68.7036 106.553 69.1592 106.462C70.8904 106.007 72.3483 104.639 72.8039 102.907C73.2595 101.176 72.7128 99.2615 71.4371 97.9854C70.1615 96.7094 69.5236 95.9802 67.6102 96.1625Z" fill="#07020D"/>
<path d="M65.4233 98.7147C65.5145 99.7174 65.4233 100.72 65.4233 101.631C65.4233 102.634 65.5145 103.637 66.0612 104.457C66.1523 104.639 66.3345 104.731 66.5168 104.639C66.6079 104.548 66.6079 104.548 66.6079 104.457C66.9724 102.999 66.9724 101.449 66.9724 99.8996C66.9724 99.2616 66.8812 98.5324 66.4256 98.1678C66.3345 98.0767 66.1523 98.0767 66.0612 98.0767C65.6967 98.0767 65.6056 98.6236 65.6056 99.0793" fill="white"/>
<path d="M68.0658 98.0765C67.5191 99.9907 67.3369 102.087 67.6102 104.092C67.6102 104.184 67.6102 104.275 67.7013 104.366C67.7925 104.457 67.9747 104.457 68.0658 104.366C68.1569 104.275 68.248 104.092 68.248 104.001C68.7036 102.543 68.977 100.993 68.977 99.5349C68.977 98.988 68.977 98.5323 68.6125 98.0765C68.4303 97.9854 68.248 98.0765 68.1569 98.2588" fill="white"/>
<path d="M59.045 100.629C59.045 99.8997 58.6805 99.3528 58.3161 98.7148C58.1338 98.3502 57.496 97.9856 57.1315 97.8033C56.9493 97.621 56.6759 97.5298 56.4937 97.5298C54.8535 97.0741 53.0312 97.621 51.9377 98.8971C50.8443 100.173 50.571 102.087 51.2999 103.637C51.5733 104.275 52.0289 104.822 52.6667 105.095C52.94 105.186 53.2134 105.278 53.4868 105.369C54.4891 105.642 55.4914 105.824 56.4026 105.369C56.8582 105.095 57.2226 104.639 57.496 104.184C58.0427 103.09 58.8628 101.814 59.045 100.629Z" fill="#07020D"/>
<path d="M55.127 99.4438C55.127 100.446 55.127 101.449 55.3092 102.452C55.4003 102.816 55.4914 103.272 55.7648 103.546C55.8559 103.637 55.947 103.637 56.0381 103.637C56.1293 103.637 56.1293 103.546 56.2204 103.546C56.4937 103.272 56.676 102.725 56.676 102.361C56.676 101.905 56.5849 101.449 56.676 100.993C56.676 100.538 56.7671 100.082 56.676 99.7172C56.5849 99.3526 56.0381 98.988 55.6737 99.2615" fill="white"/>
<path d="M53.9424 99.5349C53.2135 100.173 52.5756 100.902 52.0289 101.722C52.849 102.087 53.578 102.725 54.1247 103.454C54.3069 102.452 54.398 101.358 54.398 100.355C54.398 100.082 54.3069 99.8084 54.1247 99.6261" fill="white"/>
<path d="M81.1869 97.5296C80.2757 97.5296 79.4556 97.4385 78.5444 97.6208C77.7244 97.8031 76.8132 98.1677 76.3576 98.8969C75.902 99.5349 75.7197 100.264 75.6286 101.084C75.5375 101.722 75.3553 102.452 75.6286 103.09C75.7197 103.363 75.902 103.545 76.1753 103.728C76.8132 104.457 77.5421 105.186 78.4533 105.46C78.9089 105.551 79.3645 105.551 79.9112 105.551C80.7313 105.551 81.5513 105.46 82.2803 105.186C83.8293 104.457 84.6494 102.543 84.376 100.811C84.1938 99.6261 83.3737 98.4411 82.2803 97.9854" fill="#07020D"/>
<path d="M78.2711 99.3526C78.18 100.629 78.2711 101.996 78.3623 103.272C78.3623 103.637 78.5445 104.001 78.8179 104.092C79.4557 102.999 79.4557 101.631 79.5468 100.446C79.5468 100.082 79.5468 99.7172 79.3646 99.3526C79.1823 98.988 78.8179 98.7146 78.4534 98.8969C78.4534 98.988 78.3623 99.1703 78.3623 99.2615" fill="white"/>
<path d="M80.549 99.4439C80.4579 100.902 80.3668 102.269 80.4579 103.728C81.0957 103.181 81.7336 102.634 82.1892 101.905C82.2803 101.723 82.3714 101.631 82.3714 101.449C82.3714 101.176 82.1892 100.993 82.098 100.811C81.6424 100.264 81.0957 99.7173 80.6401 99.1704" fill="white"/>
<path d="M72.5306 90.0555C64.9677 90.329 57.4049 90.329 49.9331 90.0555C48.0196 89.9644 46.1061 89.8732 44.1927 90.1467C43.7371 90.2378 43.3726 90.2378 43.0081 90.5113C42.6436 90.7847 42.4614 91.2404 42.5525 91.605C46.9262 92.5165 51.4822 91.6962 56.0381 91.605C58.3161 91.5139 60.594 91.6962 62.872 91.8785C65.8789 92.0608 68.977 92.2431 71.9839 92.5165C72.1661 92.5165 72.4395 92.5165 72.5306 92.4254C73.1684 92.0608 72.6217 91.0581 72.8951 90.3289" fill="#0E76BC"/>
<path d="M72.6217 92.243C78.6356 91.7873 84.7405 91.7873 90.7544 92.1519C91.3922 91.9696 91.3011 90.9669 90.8455 90.5112C90.3899 90.0554 89.6609 90.0554 89.0231 90.0554C83.556 90.0554 78.18 90.0554 72.7129 90.0554C72.6217 90.6935 72.5306 91.4227 72.6217 92.0607" fill="white"/>
<path d="M73.2595 89.5085C72.6217 89.3262 71.8928 89.5085 71.4372 89.9643C70.9816 90.42 70.7993 91.1492 70.9816 91.7873C71.1638 92.4253 71.7105 92.8811 72.3484 92.9722C72.9862 93.0634 73.7151 92.6988 73.9885 92.1519C74.1707 91.7873 74.2618 91.4227 74.2618 91.0581C74.2618 90.6023 74.1707 90.2377 73.9885 89.8731C73.8063 89.5085 73.3507 89.3262 72.8951 89.5085" fill="#07020D"/>
<path d="M91.5744 73.5574C91.301 75.1069 91.1188 76.6565 91.7566 78.0237C92.3945 79.2998 93.579 80.2113 94.9458 80.667C96.3126 81.1228 97.6794 81.3051 99.1373 81.3962C111.074 82.3989 123.102 83.4927 135.038 84.4953C135.585 84.5865 136.132 84.5865 136.678 84.313C137.407 83.8573 137.589 82.9458 137.681 82.1254C138.683 73.1928 139.776 64.2602 140.779 55.3275C140.87 54.4161 140.961 53.5046 140.687 52.6842C140.323 51.4993 139.138 50.5878 137.863 50.3143C136.587 49.9497 135.311 50.0409 134.036 50.0409C121.552 50.5878 109.069 51.0435 96.5859 51.5904C95.6747 51.5904 94.6724 51.6816 93.7613 51.955C92.8501 52.3196 92.03 52.9577 91.7566 53.8692C91.5744 54.4161 91.5744 55.0541 91.6655 55.601C91.9389 61.7991 89.9343 67.9973 90.7543 74.1954" fill="#25AAE1"/>
<path d="M93.1234 72.5548C93.2145 73.7398 93.0323 74.8336 93.1234 76.0185C93.2145 77.2035 93.6701 78.3884 94.5813 79.0264C95.3103 79.4822 96.1303 79.5733 96.9504 79.6645C108.523 80.6671 120.186 81.6698 131.758 82.6724C132.213 82.6724 132.669 82.7636 133.125 82.6724C134.036 82.4901 134.765 81.6698 135.22 80.8494C135.585 79.9379 135.767 79.0264 135.858 78.1149C136.678 70.9141 137.498 63.7134 138.318 56.4214C138.409 55.4188 138.409 54.2338 137.589 53.6869C137.225 53.5046 136.86 53.5046 136.405 53.5046C134.218 53.5046 132.031 53.7781 129.844 53.8692C118.546 54.6896 107.156 53.8692 95.9481 55.0542C95.4014 55.1453 94.7636 55.2365 94.3991 55.6011C94.1257 55.9657 94.0346 56.4214 94.0346 56.8772C93.6701 60.9789 93.2145 65.1717 92.8501 69.2735C92.759 70.6407 92.5767 72.0991 92.9412 73.3752" fill="white"/>
<path d="M116.085 78.5707C121.644 78.6618 127.111 80.8494 132.669 80.4848C132.942 80.4848 133.216 80.3936 133.489 80.3025C133.762 80.1202 133.854 79.8467 133.671 79.5733C127.749 78.9353 121.917 78.3884 115.994 77.9326" fill="#E2E2E2"/>
<path d="M111.165 76.1096C118.09 77.3856 125.197 78.2971 132.213 78.7529C132.578 78.7529 132.942 78.7529 133.307 78.5706C133.671 78.3883 133.854 77.9325 133.58 77.6591C132.122 77.2945 130.664 77.2033 129.207 77.1122C123.375 76.6564 117.634 76.1096 111.803 75.6538C111.529 75.6538 111.256 75.6538 111.074 75.8361" fill="#E2E2E2"/>
<path d="M79.729 66.6302C79.729 68.9089 79.9112 71.6434 81.7336 73.0107C82.9182 73.9222 84.4672 74.1045 85.9251 74.1045C88.1119 74.1956 90.2077 74.1956 92.3945 74.2868C105.06 74.3779 117.634 74.5602 130.3 74.6514C131.029 74.6514 131.758 74.6513 132.396 74.3779C133.945 73.7399 134.4 71.9169 134.583 70.2762C134.765 67.9975 134.583 65.7187 134.765 63.44C134.947 60.4321 135.676 57.5153 136.04 54.5985C136.678 49.8588 136.496 44.9367 136.314 40.1058C136.314 39.012 136.223 37.827 135.676 36.8244C135.038 35.6395 133.762 34.9103 132.487 34.6368C131.211 34.3634 129.844 34.4545 128.478 34.4545C113.534 35.2749 98.4995 36.1864 83.556 37.0067C82.007 37.0979 80.1846 37.3713 79.4557 38.7385C79.0912 39.4677 79.0912 40.2881 79.0912 41.1084C79.2734 49.6765 79.5468 58.1533 79.729 66.6302Z" fill="#25AAE1"/>
<path d="M81.6425 64.8982C81.6425 67.0858 81.8247 69.638 83.7382 70.7318C84.5583 71.1875 85.4695 71.1875 86.3807 71.2787C100.322 71.9167 114.354 72.6459 128.295 71.8256C129.662 71.7344 131.211 71.5521 131.849 70.276C132.122 69.7291 132.122 69.1823 132.122 68.6354C132.213 63.4398 131.667 58.2443 131.758 53.0488C131.849 49.494 132.213 45.9392 132.578 42.3844C132.669 41.3817 132.76 40.2879 132.213 39.3764C131.211 37.8269 128.933 37.9181 127.02 38.1915C112.987 40.3791 98.5906 38.7384 84.4672 40.1968C83.556 40.2879 82.5537 40.4702 81.9158 41.1083C81.278 41.7463 81.1869 42.8401 81.1869 43.7516C81.278 51.0435 82.6448 58.3355 81.1869 65.354" fill="white"/>
<path d="M111.165 68.3621C117.452 68.8178 123.739 68.909 130.027 68.909C130.209 69.1824 130.027 69.6381 129.753 69.8204C129.48 70.0027 129.115 70.0028 128.751 70.0028C124.742 70.0939 120.641 70.185 116.632 70.2762C115.083 70.2762 113.443 70.3673 111.894 70.0028C111.438 69.9116 110.983 69.7293 110.709 69.3647C110.436 69.0001 110.709 68.2709 111.165 68.3621Z" fill="#E2E2E2"/>
<path d="M66.8812 23.1519C65.6967 23.1519 64.6944 23.9723 64.2388 25.0661C63.7832 26.1599 63.6009 27.2537 63.6009 28.4386C63.6009 34.0898 65.15 39.5588 65.7878 45.2101C66.4256 50.5879 66.2434 56.0568 67.2457 61.3435C67.4279 62.4373 67.7013 63.5311 68.3391 64.4426C69.3414 65.9009 71.0727 66.7213 72.8951 66.9947C74.6263 67.2682 76.4487 66.9947 78.2711 66.8124C93.3968 65.3541 108.705 68.1797 123.83 66.7213C124.924 66.6301 126.108 66.4478 126.837 65.6275C127.293 65.0806 127.566 64.4426 127.657 63.7134C128.022 62.1638 128.204 60.6143 128.386 59.0648C129.115 49.5852 127.02 40.0145 128.204 30.6262C128.386 29.3501 128.569 28.074 128.478 26.7979C128.386 25.5218 127.84 24.2457 126.746 23.4254C125.653 22.6962 124.286 22.605 122.919 22.605C105.424 22.1493 87.9297 21.8758 70.4349 22.6962C68.977 22.7873 67.4279 22.8785 66.0611 23.4254C64.6944 24.0634 63.5098 25.2484 63.4187 26.7979" fill="#25AAE1"/>
<path d="M66.8813 28.5298C66.4257 39.012 68.4303 49.4942 70.4349 59.794C70.7083 61.0701 70.9816 62.5285 72.075 63.3489C72.8951 63.8958 73.8974 63.9869 74.8997 64.0781C90.0254 64.8984 105.151 65.0807 120.277 64.8072C121.917 64.8072 123.739 64.625 124.651 63.2577C125.106 62.6197 125.197 61.7082 125.288 60.979C126.2 50.588 125.38 40.0146 124.559 29.6236C124.468 28.9856 124.468 28.4387 124.104 27.8918C123.557 27.1626 122.464 27.1626 121.553 27.1626C114.263 27.2537 106.974 27.2537 99.5929 27.3449C91.4833 27.436 83.3738 27.436 75.2642 27.5272C72.1662 27.5272 68.7036 27.7095 66.6079 29.9882" fill="white"/>
<path d="M93.9435 30.0792C103.238 29.988 112.532 29.8057 121.735 29.7146C122.099 29.7146 122.464 29.7146 122.737 29.8969C123.01 30.0792 123.101 30.5349 122.828 30.7172C122.646 30.8084 122.464 30.8084 122.281 30.8084C113.443 30.9907 104.513 31.2641 95.6747 31.7199C95.0369 31.7199 94.3079 31.811 93.8523 31.4464C93.3056 31.0818 93.2145 30.1703 93.7612 29.8058" fill="#E2E2E2"/>
<path d="M93.7612 32.996C103.238 32.7226 112.714 32.6314 122.19 32.9049C122.464 32.9049 122.737 32.9049 122.919 33.0872C123.101 33.2694 123.193 33.5429 123.01 33.7252C113.261 33.9075 103.602 33.9075 93.8523 33.9075C93.8523 33.634 93.8523 33.4517 93.8523 33.1783" fill="#E2E2E2"/>
<path d="M104.24 35.1837C103.967 35.6394 104.331 36.2775 104.787 36.5509C105.242 36.8244 105.789 36.8244 106.336 36.8244C110.983 37.0067 115.539 36.9155 120.186 36.8244C121.188 36.8244 122.281 36.8244 123.102 36.1863C123.193 36.0952 123.375 36.004 123.375 35.8217C123.557 35.366 122.828 35.0925 122.373 35.0925C116.268 35.0925 110.163 35.2748 104.149 35.5483" fill="#E2E2E2"/>
<path d="M73.3507 61.7991C74.0796 55.9656 73.5329 50.0409 72.9862 44.2073C72.804 42.5666 72.7128 40.9259 72.5306 39.2852C72.3484 37.3711 72.1661 35.457 71.9839 33.5428C72.3484 33.634 72.6217 33.7251 72.9862 33.8163C72.6217 33.3605 72.075 32.9048 71.5283 32.6313C71.1638 33.1782 70.8905 33.7251 70.526 34.272C70.7994 34.0897 71.0727 33.9986 71.3461 33.8163C71.5283 35.7304 71.6194 37.6446 71.8017 39.4675C72.3484 46.2126 72.8951 53.0488 72.7129 59.7938C72.7129 60.7053 72.7129 61.8903 73.624 62.346C73.624 61.9814 73.7152 61.6168 73.7152 61.2522" fill="#E2E2E2"/>
<path d="M73.3507 60.0674C89.1143 59.9763 104.878 59.794 120.641 59.7028C120.641 59.3382 120.733 59.0648 120.733 58.7002C121.553 58.9736 122.19 59.6117 122.555 60.3409C121.826 60.6143 121.097 61.0701 120.459 61.617C120.459 61.2524 120.459 60.7966 120.368 60.432C104.969 60.9789 89.4788 60.9789 74.0797 60.5232C73.8063 60.5232 73.6241 60.5232 73.4419 60.3409C73.2596 60.1586 73.2596 59.8851 73.4419 59.7028" fill="#E2E2E2"/>
<path d="M74.6263 46.4861C78.3622 43.3871 82.007 40.1057 85.4695 36.7332C85.6517 36.5509 85.7428 36.4597 86.0162 36.4597C86.2896 36.4597 86.4718 36.642 86.654 36.8243C90.6633 41.2906 94.6725 45.6658 98.6817 50.1321C98.864 50.3144 98.9551 50.4967 99.2284 50.4967C99.4107 50.4967 99.5018 50.4056 99.684 50.3144C102.326 48.4914 104.878 46.5773 107.429 44.572C110.163 47.1242 113.17 49.4029 116.45 51.1347C118.272 49.6764 120.095 48.3091 121.917 46.8507C120.368 48.5826 118.637 50.1321 116.723 51.4082C116.541 51.4993 116.45 51.5905 116.268 51.5905C115.994 51.5905 115.812 51.4993 115.539 51.317C112.805 49.4029 110.163 47.5799 107.429 45.6658C107.247 45.5746 107.065 45.4835 106.882 45.3923C106.609 45.3923 106.427 45.5746 106.245 45.7569C104.149 47.5799 101.962 49.3118 99.684 50.9525C99.5018 51.1347 99.3195 51.2259 99.0462 51.2259C98.7728 51.2259 98.4995 50.9524 98.3172 50.7702C94.2169 46.2127 90.1165 41.7464 86.0162 37.1889C82.4626 40.7437 78.7267 44.0251 74.8086 47.2153C74.8086 46.9419 74.8086 46.6684 74.8086 46.3038" fill="#E2E2E2"/>
<path d="M86.2896 38.8296C86.7451 45.4835 86.7451 52.2285 86.4718 58.8824C87.4741 52.1374 88.1119 45.2101 86.5629 38.5562" fill="#E2E2E2"/>
<path d="M98.4995 51.7727C98.4995 54.1426 98.4995 56.4213 98.4995 58.7912C98.4995 58.9735 98.4995 59.2469 98.6818 59.2469C99.1373 56.7859 99.1373 54.3249 98.5906 51.8639" fill="#E2E2E2"/>
<path d="M106.791 46.304C106.609 50.4057 106.791 54.5074 107.247 58.6091C107.52 57.5153 107.338 56.4215 107.338 55.3277C107.338 53.7782 107.611 52.3198 107.702 50.7703C107.794 49.2207 107.611 47.6712 106.882 46.3951" fill="#E2E2E2"/>
<path d="M115.903 51.864C115.903 54.2339 115.994 56.6038 115.994 58.9737C116.632 56.6949 116.723 54.2339 116.268 51.864" fill="#E2E2E2"/>
<path d="M56.5848 80.6672C56.0381 81.6699 55.5825 82.7637 55.1269 83.8575C55.0357 84.1309 54.6713 84.5867 54.9446 84.7689C55.0357 84.8601 55.4913 84.6778 55.6736 84.7689C58.0427 85.1335 59.4095 85.1335 61.323 85.2247C63.1453 85.3158 64.421 85.2247 66.0611 85.2247C66.2434 85.2247 66.8812 85.407 67.0634 85.2247C67.3368 84.9512 66.8812 84.6778 66.7901 84.3132C66.4256 83.3106 66.1522 82.3991 65.7878 81.3964C65.7878 81.3053 65.6967 81.123 65.6055 81.0318C65.5144 80.9407 65.4233 80.9407 65.2411 80.9407C62.4164 81.0318 59.5917 81.0318 56.767 81.123" fill="#07020D"/>
<path d="M56.4026 80.7582C56.4937 76.4742 55.5826 72.1901 53.8513 68.2707C52.5756 70.276 52.3023 72.8282 53.0312 75.0158C52.3023 75.745 51.4822 76.383 50.571 76.8388C47.1996 72.0078 47.473 65.0805 51.1177 60.523C51.5733 59.885 52.12 59.3381 52.7579 58.9735C53.3957 58.6089 54.1247 58.4266 54.8536 58.2443C55.8559 58.062 56.9493 57.8797 57.9516 57.8797C58.7717 57.8797 59.5918 57.8797 60.3207 57.7886C60.9586 57.6974 61.5053 57.6063 62.1431 57.424C62.6898 57.2417 63.3277 57.1505 63.8744 56.9682C67.0635 56.1479 70.3438 55.3275 73.1685 53.5045C73.8974 53.0488 74.6264 52.4108 75.2642 51.7727C75.9932 50.9524 76.5399 50.0409 77.5422 49.5851C79.0001 48.9471 80.9136 50.0409 81.0958 51.5904C81.1869 52.3196 80.9136 53.0488 80.6402 53.778C79.1823 57.1505 76.2665 59.885 72.804 61.1611C72.1662 61.3434 71.5284 61.5257 71.0728 61.9814C70.6172 62.346 70.3438 62.8018 69.9793 63.2575C69.0681 64.6248 68.0658 65.992 67.7925 67.6327C67.7014 68.1796 67.7014 68.7265 67.5191 69.2734C67.3369 69.9114 67.0635 70.5495 66.8813 71.1875C65.5145 74.4689 64.7856 78.0237 65.879 81.3962C62.7809 82.1254 59.8651 81.9431 56.5849 81.0316" fill="#0E76BC"/>
<path d="M76.9043 49.8587C78.0888 48.6738 78.8178 46.9419 79.0912 45.3012C79.3645 43.5694 79.2734 41.8376 79.1823 40.1969C79.1823 39.8323 79.1823 39.4677 79.2734 39.1031C79.6379 38.1004 80.8224 37.6447 81.8247 37.4624C81.8247 37.827 81.7336 38.2827 81.9158 38.6473C82.0981 39.0119 82.4626 39.2854 82.827 39.1942C83.0093 39.9234 82.5537 40.6526 82.1892 41.3818C80.4579 44.7543 82.4625 49.0384 80.6402 52.3197C80.4579 51.7728 80.5491 51.2259 80.2757 50.7702C80.0023 50.3145 79.4556 50.041 78.9089 49.9499C78.3622 49.8587 77.8155 50.041 77.3599 50.1322" fill="#F7AD72"/>
<path d="M82.3714 37.1888C82.827 36.8242 83.3737 36.6419 83.9204 36.5508C84.2849 36.5508 84.5583 36.5508 84.9227 36.5508C85.0139 36.5508 85.1961 36.6419 85.1961 36.7331C85.1961 36.8242 85.1961 36.8242 85.105 36.8242C84.7405 37.28 84.2849 37.7357 83.7382 37.918C83.3737 38.1003 82.9181 38.1915 82.5537 38.0092C82.1892 37.8269 82.0069 37.28 82.2803 37.0065C82.3714 37.0065 82.4625 37.0065 82.5537 37.0065" fill="#07020D"/>
<path d="M79.5467 38.1003C78.9089 38.4649 78.6356 39.2853 78.7267 40.0145C77.7244 40.2879 76.8132 40.6525 75.8109 40.926C75.7198 40.926 75.7198 40.926 75.6286 40.926C75.5375 40.926 75.5375 40.8348 75.5375 40.8348C75.2642 40.3791 75.2642 39.741 75.3553 39.1941C76.5398 38.6472 77.8155 38.2826 79.1823 38.1003" fill="#07020D"/>
<path d="M57.9516 57.8797C57.9516 57.8797 58.9539 54.8718 58.7717 53.4134C58.4072 53.2311 58.0427 53.0488 57.8605 52.593C57.7694 52.1373 58.1339 51.6815 58.5894 51.5904C59.045 51.4992 59.5006 51.7727 59.8651 52.0461C60.2296 52.4107 60.5941 52.7753 60.8674 53.1399C61.323 53.8691 61.323 54.1426 62.2342 54.6895C62.3253 54.7806 62.5076 54.6895 62.5987 54.8718C62.6898 55.0541 62.7809 55.7833 62.7809 56.0567C62.872 56.7859 63.3276 57.1505 63.2365 57.0593C63.1454 56.9682 62.9632 57.2416 62.872 57.2416C61.323 57.7885 60.5029 58.062 59.1362 57.9708C58.7717 57.9708 58.1338 58.2443 57.9516 57.8797Z" fill="#F7AD72"/>
<path d="M64.421 50.7701C64.7855 51.5904 65.0588 52.9577 65.4233 53.778C65.5144 53.8692 65.5144 54.0515 65.4233 54.1426C65.3322 54.3249 65.0588 54.2338 64.9677 54.3249C64.5121 54.3249 64.2388 54.7807 63.8743 54.963C63.0542 55.3275 62.0519 54.7807 61.5052 54.0515C60.9585 53.3223 60.5029 52.5931 59.7739 51.955C59.045 51.317 58.0427 51.5904 57.9516 52.6842C57.5871 52.2285 56.8581 50.7701 56.9493 50.2232C56.9493 50.0409 57.0404 49.8586 57.0404 49.5851C56.9493 48.9471 56.1292 48.5825 56.2203 48.0356C56.3114 47.671 56.6759 47.3976 57.0404 47.3976C57.4049 47.3064 57.8604 47.3064 58.1338 47.033C58.4072 46.8507 58.4983 46.5772 58.7716 46.4861C58.8628 46.4861 59.045 46.4861 59.1361 46.3949C59.4095 46.3038 59.5006 45.848 59.5917 45.5746C59.7739 45.0277 60.4118 44.6631 61.0496 44.6631C61.6874 44.6631 62.2341 45.0277 62.5986 45.4834C62.7809 45.6657 62.9631 45.9392 62.9631 46.2126C63.0542 46.7595 62.6897 47.3064 62.143 47.671C61.6874 47.9445 61.0496 48.1268 60.594 48.4914C60.1384 48.7648 59.6828 49.3117 59.7739 49.9497C59.8651 50.2232 59.9562 50.4055 60.1384 50.6789C60.594 51.4081 61.1407 52.0462 61.5963 52.7754C61.6874 52.8665 61.7786 52.9577 61.8697 53.0488C62.3253 53.3223 62.6897 52.6842 62.9631 52.3196C63.2365 51.955 63.6921 51.6816 64.1476 51.317" fill="#07020D"/>
<path d="M62.4164 47.1243C62.9631 48.0358 63.601 48.9473 64.1477 49.7676C64.3299 50.041 64.5121 50.4056 64.421 50.7702C63.8743 51.1348 63.3276 51.5906 62.9631 52.2286C62.7809 52.5021 62.5075 52.8667 62.2342 52.8667C61.9608 52.8667 61.6875 52.5932 61.5052 52.4109C61.0496 51.864 60.6852 51.3171 60.2296 50.7702C59.774 50.2233 59.3184 49.4941 59.5006 48.765C59.6829 48.2181 60.2296 47.8535 60.7763 47.6712C61.323 47.4889 61.9608 47.3977 62.4164 47.1243Z" fill="#F7AD72"/>
<path d="M52.94 74.7424C53.7601 76.1097 54.6713 77.4769 55.7647 78.5707C55.8558 78.6618 55.9469 78.8441 56.038 78.9353C56.3114 79.1176 56.4025 79.391 56.4025 79.4822C56.4025 80.3937 56.6759 80.9406 55.8558 82.3078C55.7647 82.399 55.7647 81.9432 55.7647 81.8521C55.7647 81.214 55.4002 80.6671 54.9446 80.3025C54.489 79.9379 53.9423 79.6645 53.3956 79.2999C52.7578 78.9353 52.3022 78.4795 51.7555 78.0238C51.2088 77.4769 51.0265 77.4769 50.5709 76.8389C51.391 76.292 52.3022 75.6539 52.8489 75.0159" fill="#F7AD72"/>
</g>
<defs>
<clipPath id="clip0">
<rect width="158" height="138" fill="white"/>
</clipPath>
</defs>
</svg>
