<svg width="19" height="19" viewBox="0 0 19 19" fill="none" xmlns="http://www.w3.org/2000/svg">
<path d="M9.47881 16.6947C9.0107 16.6947 8.55306 16.6493 8.10962 16.5635L7.02417 17.3483C7.79966 17.5914 8.62417 17.7226 9.47881 17.7226C10.3442 17.7226 11.1786 17.5878 11.9627 17.3387L10.8815 16.557C10.4276 16.6471 9.95868 16.6947 9.47881 16.6947Z" fill="#C4B425"/>
<path d="M7.74669 2.51646L8.11523 1.39099C5.29886 1.86315 2.96332 3.77137 1.89014 6.33483L3.0201 6.33226C3.94624 4.45166 5.66971 3.03179 7.74669 2.51646Z" fill="#C4B425"/>
<path d="M2.33373 10.3434L1.25696 9.55725C1.27212 11.7709 2.16646 13.7792 3.6076 15.2503L3.97087 14.1233C3.08957 13.075 2.5014 11.7726 2.33373 10.3434Z" fill="#C4B425"/>
<path d="M16.62 10.3773C16.449 11.7769 15.8749 13.0536 15.0173 14.0872L15.3818 15.2179C16.7975 13.7568 17.677 11.7736 17.7003 9.58862L16.62 10.3773Z" fill="#C4B425"/>
<path d="M15.9375 6.33219L17.0675 6.33482C16 3.78498 13.6835 1.88324 10.8873 1.39856L11.2572 2.52775C13.3134 3.05252 15.0182 4.46553 15.9375 6.33219Z" fill="#C4B425"/>
<path d="M15.3713 18.5351L13.1483 11.6393L19 7.36701L11.7547 7.35044L9.5 0.464844L7.24527 7.35044L0 7.36701L5.8516 11.6393L3.62848 18.5351L9.5 14.2899L15.3713 18.5351Z" fill="#C4B425"/>
</svg>
