<svg width="102" height="105" viewBox="0 0 102 105" fill="none" xmlns="http://www.w3.org/2000/svg">
<g clip-path="url(#clip0)">
<path d="M2.08062 49.5677C-0.761171 37.4818 30.2955 19.4293 43.9463 13.5138C57.597 7.59834 60.3373 14.6357 75.8657 13.5648C79.9761 13.3099 84.5433 13.8708 88.5015 14.7377C92.4597 15.6047 95.8597 17.0325 96.7732 20.2453C97.5343 22.948 98.9045 31.2603 97.7373 33.9121C93.6776 42.9383 95.606 43.2443 101.29 51.7096C103.421 54.8713 100.224 63.4386 97.4329 66.2943C96.3164 67.4162 87.4358 81.185 85.812 81.797C76.8299 85.0097 78.7075 88.4264 73.6329 95.1578C68.7612 101.583 63.4329 98.3706 55.4657 102.399C45.9761 107.193 25.3224 105.051 17.5075 98.6255C9.69256 92.2001 2.99405 81.797 0.558232 73.0767C-1.47162 65.8354 3.0448 56.9111 2.08062 49.5677Z" fill="#2B2B2B"/>
<path d="M29.0269 31.9743C28.0627 39.3176 33.797 46.865 41.1045 47.8849C41.8657 50.4347 39.3791 52.5765 37.9075 54.7693C35.3194 58.696 35.9791 63.8975 36.7403 68.5381C35.5731 68.5891 34.3552 68.6911 33.4925 69.4051C32.5791 70.119 32.3761 71.7509 33.3403 72.3628C33.7463 72.6178 34.2537 72.6688 34.7612 72.6688C43.2866 72.7708 51.8627 71.9548 60.2358 70.17C61.809 69.813 63.4328 69.4561 64.7523 68.5381C66.0717 67.6202 67.0358 66.0394 66.8328 64.4585C65.5642 63.2856 63.1284 64.1525 62.0627 62.8266C61.5552 62.2147 61.5552 61.3478 61.5552 60.5318C61.4537 57.6251 60.8448 54.7183 59.2209 52.3215C57.597 49.9247 54.9075 48.1909 52.0149 48.2419C51.6597 48.2419 51.2537 48.2929 50.8985 48.0889C50.1881 47.7319 50.2388 46.661 50.6955 46.0491C51.1522 45.4371 51.9134 45.0801 52.5731 44.6722C54.5522 43.3463 55.7194 41.0005 56.1254 38.6037C56.5314 36.2069 56.2269 33.8101 55.9224 31.4133C55.8209 30.7504 55.7194 30.0364 55.9731 29.4245C56.6328 27.4867 59.8299 26.7217 59.4239 24.7329C59.1194 23.152 56.9373 22.999 55.3642 23.254C47.194 24.5289 39.0239 25.8548 30.8537 27.1297C29.7881 27.2827 28.6716 27.4867 27.7582 28.0986C26.8448 28.7106 26.1851 29.8325 26.4388 30.8524C26.7433 31.9233 28.2149 32.5352 28.9761 31.7703" fill="#25AAE1"/>
<path d="M30.397 33.6061C31.0567 39.7256 36.385 45.0802 42.5253 45.6921C43.185 45.7431 43.8955 45.7941 44.3522 46.253C44.9104 46.814 44.8597 47.7319 44.4537 48.3949C44.0985 49.0578 43.4895 49.5678 42.8806 50.0777C38.3641 54.1064 36.2835 60.6848 37.6537 66.6003C37.8567 67.4162 38.1611 68.2832 38.8716 68.6911C39.3791 68.9971 40.0388 68.9461 40.597 68.8951C46.2298 68.4871 51.8626 67.1613 57.0388 64.9174C57.6985 64.6115 58.4089 64.3055 58.8656 63.6936C59.3223 63.0816 59.4238 62.2147 59.4238 61.4497C59.4746 58.39 58.5611 55.0753 56.1761 53.1885C54.8567 52.1685 53.2835 51.6586 51.8119 50.9446C50.3403 50.2307 48.9194 49.1088 48.4626 47.5279C48.3104 46.967 48.3104 46.2531 48.6656 45.7941C48.9194 45.4881 49.2238 45.3351 49.5791 45.1311C51.6597 43.8053 52.9791 41.4595 53.5373 39.0627C54.0955 36.6659 54.0447 34.1161 53.9432 31.6173C53.9432 31.1074 53.8925 30.5464 53.6895 30.0874C53.3343 29.2715 52.4716 28.7106 51.6597 28.4046C47.9044 27.0277 43.8447 29.0675 40.191 30.6484C37.1462 31.9233 34 32.8922 30.8029 33.5041" fill="white"/>
<path d="M36.6388 41.5104C41.5612 41.5614 46.4836 41.5614 51.4567 41.6124C49.8836 42.7853 48.5134 44.2642 47.397 45.8451C47.1433 46.202 46.8895 46.661 46.991 47.12C47.0925 47.4769 47.397 47.6809 47.5492 48.0379C47.6507 48.3438 47.6 48.6498 47.5492 48.9558C46.6865 54.3103 45.8746 59.6649 45.0119 65.0194C46.4328 65.3764 47.803 66.0393 49.0716 66.8553C46.5851 68.7931 43.2866 69.609 40.1403 69.0991C39.4298 68.9971 38.5672 68.5891 38.6179 67.8752C38.6179 67.1102 39.5821 66.8043 40.3433 66.7023C41.5104 66.5493 42.8806 66.2943 43.4388 65.2234C43.6925 64.7644 43.6925 64.2545 43.7433 63.7445C44.0985 58.39 44.4537 53.0354 44.8089 47.7319C44.8597 47.2219 44.8597 46.661 44.606 46.202C44.2507 45.5901 43.4388 45.3861 42.7283 45.2841C40.3433 44.8252 37.5015 44.0092 36.8418 41.6634" fill="#D6C932"/>
<path d="M65.5641 11.0661C58.4089 8.1593 50.594 6.78242 42.9313 7.64934C35.2686 8.51627 27.8089 11.627 22.1761 16.9305C12.8895 25.5998 9.38801 39.0117 8.98204 51.7606C8.88055 55.3303 8.98204 58.9509 10.1492 62.2657C11.1641 65.0704 12.8895 67.6202 14.7164 69.966C18.8268 75.2696 23.7999 80.2161 30.194 82.256C32.5791 83.0209 35.0656 83.3269 37.5522 83.5818C41.8149 84.0408 46.0776 84.3978 50.3402 84.6017C52.4716 84.7037 54.6029 84.8057 56.6835 84.4998C59.779 84.0408 62.6208 82.7149 65.4626 81.389C68.5074 79.9612 71.6029 78.4823 74.3432 76.4934C85.1522 68.7421 89.7194 53.5454 85.6089 40.8475C84.0358 36.0539 81.397 31.4133 81.7522 26.4157C83.0209 25.7018 84.6955 26.2627 85.7104 27.3337C86.7253 28.4046 87.182 29.8324 87.5373 31.2603C88.8059 36.1049 89.2626 41.1025 89.7194 46.1C90.0746 49.9757 90.4298 53.9534 89.9223 57.829C88.5522 68.3851 80.8388 77.4114 71.3999 82.205C61.9611 86.9985 50.9999 88.0185 40.4447 87.2535C33.2895 86.7436 25.8805 85.3157 20.2985 80.8281C18.4208 79.2982 16.7462 77.5134 15.1731 75.6775C12.0268 72.0568 8.93129 68.3341 7.05368 63.9485C5.07458 59.5119 4.46562 54.7183 4.26263 49.9757C4.16114 46.763 4.21189 43.4483 4.87159 40.2865C5.63278 36.6149 7.15517 33.1472 8.67756 29.6795C10.4537 25.7018 12.2805 21.6221 15.2746 18.4094C17.2029 16.3186 19.588 14.7377 21.9223 13.1569C26.7432 9.89315 31.7164 6.62943 37.2985 4.94658C40.7492 3.92666 44.4029 3.5187 48.0567 3.56969C55.3641 3.67169 62.6208 5.66052 68.9641 9.23021C68.9134 6.93541 68.9134 4.58961 68.8626 2.2948C68.8626 1.63186 68.8626 0.968917 69.2179 0.458961C69.5731 -0.0509958 70.4358 -0.254978 70.8417 0.203982C72.2119 4.53861 72.7194 9.12822 72.3641 13.6158C68.6089 15.1967 64.7014 16.4716 60.6925 17.3895C59.6776 17.6445 58.1552 17.5425 58.0537 16.4716C58.0029 15.9106 58.4089 15.4517 58.8149 15.0947C59.8298 14.2278 61.1492 13.7178 62.4686 13.6158C63.2298 13.5648 64.0925 13.6668 64.7522 13.2589C65.4119 12.8509 65.6656 11.678 64.9552 11.372" fill="#6EDDFF"/>
</g>
<defs>
<clipPath id="clip0">
<rect width="102" height="105" fill="white"/>
</clipPath>
</defs>
</svg>
