<svg width="30" height="30" viewBox="0 0 30 30" fill="none" xmlns="http://www.w3.org/2000/svg">
<g opacity="0.3">
<path d="M15 0C6.72903 0 0 6.72903 0 15C0 23.2704 6.72903 30 15 30C23.2704 30 30 23.2704 30 15C30 6.72903 23.2716 0 15 0ZM21.6916 11.5669C21.6982 11.7155 21.7018 11.8654 21.7018 12.0152C21.7018 16.5776 18.2301 21.8366 11.8781 21.8366C9.9283 21.8366 8.11327 21.2668 6.58584 20.2868C6.85592 20.3188 7.13083 20.3351 7.40937 20.3351C9.02743 20.3351 10.5156 19.7829 11.6974 18.8572C10.1869 18.8295 8.91142 17.8313 8.47217 16.4592C8.68243 16.499 8.89934 16.5214 9.12108 16.5214C9.43587 16.5214 9.7416 16.4803 10.031 16.4012C8.45162 16.0845 7.26194 14.6894 7.26194 13.0158C7.26194 13.0013 7.26194 12.9862 7.26255 12.9723C7.72779 13.2303 8.26009 13.3862 8.82563 13.4037C7.89998 12.7856 7.29034 11.7282 7.29034 10.5307C7.29034 9.89749 7.46012 9.30416 7.75739 8.79421C9.45944 10.8835 12.0043 12.2575 14.8731 12.4025C14.8139 12.1494 14.7843 11.8865 14.7843 11.6152C14.7843 9.70897 16.3299 8.16281 18.2361 8.16281C19.2294 8.16281 20.1255 8.58213 20.7563 9.2528C21.5435 9.09812 22.2807 8.81173 22.9495 8.41477C22.6897 9.22138 22.1441 9.89749 21.4293 10.3253C22.1284 10.2419 22.7955 10.057 23.4123 9.78208C22.9519 10.4733 22.3665 11.0817 21.6916 11.5669Z" fill="white"/>
</g>
</svg>
